{
  "openapi" : "3.0.0",
  "info" : {
    "description" : "Cette documentation permet de requêter la base de données MySQL *AdventureWorks*.",
    "version" : "1.0.0",
    "title" : "AdventureWorks - API",
    "contact" : {
      "url": "https://gitlab.com/adventure-works",
      "name": "Nathan Hégo",
      "email" : "hegonathan@hotmail.fr"
    }
  },
  "servers" : [{
    "description" : "AdventureWorks - API NodeJS",
    "url" : "http://localhost:3000"
  }],
  "tags" : [ {
    "name" : "Products",
    "description" : "Tout sur les produits",
    "externalDocs" : {
      "description" : "Utilisation de l'API ",
      "url" : "http://localhost:3000/products"
    }
  }, {
    "name" : "Employees",
    "description" : "Tout sur les employées",
    "externalDocs": {
      "description": "Utilisation de l'API ",
      "url": "http://localhost:3000/employees"
    }
  }],
  "paths" : {
    "/products" : {
      "get" : {
        "externalDocs": {
          "description": "Utilisation de l'API ",
          "url": "http://localhost:3000/products"
        },
        "tags" : [ "Products" ],
        "summary" : "Récupère tous les produits",
        "responses" : {
          "200" : {
            "description" : "Opération réussie",
            "content" : {
              "application/json" : {
                "schema" : {
                  "type" : "array",
                  "items" : {
                    "$ref" : "#/components/schemas/Products"
                  }
                }
              }
            }
          },
          "500": {
            "description": "Connexion interrompue avec l'API"
          }
        }
      }
    },
    "/products/create": {
      "post": {
        "externalDocs": {
          "description": "Utilisation de l'API ",
          "url": "http://localhost:3000/products/create"
        },
        "tags": [
          "Products"
        ],
        "summary": "Ajout d'un produit",
        "operationId": "create",
        "responses" : {
          "200" : {
            "description" : "Opération réussie",
            "content" : {
              "application/json" : {
                "schema" : {
                  "$ref" : "#/components/schemas/Products"
                }
              }
            }
          },
          "400" : {
            "description" : "Invalid Product"
          }
        },
        "requestBody" : {
          "content" : {
            "application/json" : {
              "schema" : {
                "$ref" : "#/components/schemas/Products"
              }
            }
          },
          "description" : "order placed for purchasing the pet",
          "required" : true
        }
      }
    },
    "/employees" : {
      "get" : {
        "externalDocs": {
          "description": "Utilisation de l'API ",
          "url": "http://localhost:3000/employees"
        },
        "tags" : [ "Employees" ],
        "summary" : "Récupère tous les employées",
        "responses" : {
          "200" : {
            "description" : "Opération réussie",
            "content" : {
              "application/json" : {
                "schema" : {
                  "type" : "array",
                  "items" : {
                    "$ref" : "#/components/schemas/Employees"
                  }
                }
              }
            }
          },
          "500" : {
            "description" : "Connexion interrompue avec l'API"
          }
        }
      }
    }
  },
  "components" : {
    "schemas" : {
      "Products" : {
        "type" : "object",
        "properties" : {
          "ProductID" : {
            "type" : "integer"
          },
          "Name" : {
            "type" : "string"
          },
          "ProductNumber" : {
            "type" : "string"
          },
          "MakeFlag" : {
            "type" : "number",
            "example": "0"
          },
          "FinishedGoodsFlag" : {
            "type" : "number",
            "example": "0"
          },
          "Color" : {
            "type" : "string"
          },
          "SafetyStockLevel" : {
            "type" : "number"
          },
          "ReorderPoint" : {
            "type" : "number"
          },
          "StandardCost" : {
            "type" : "number"
          },
          "ListPrice" : {
            "type" : "number"
          },
          "Size" : {
            "type" : "number"
          },
          "SizeUnitMeasureCode" : {
            "type" : "number"
          },
          "WeightUnitMeasureCode" : {
            "type" : "number"
          },
          "Weight" : {
            "type" : "number"
          },
          "DaysToManufacture" : {
            "type" : "number"
          },
          "ProductLine" : {
            "type" : "number"
          },
          "Class" : {
            "type" : "number"
          },
          "Style" : {
            "type" : "number"
          },
          "ProductSubcategoryID" : {
            "type" : "array",
            "format": "number"
          },
          "ProductModelID" : {
            "type" : "array",
            "format": "number"
          },
          "SellStartDate" : {
            "type" : "string",
            "format": "date-time",
            "example": "2022-07-17T00:00:00"
          },
          "SellEndDate" : {
            "type" : "string",
            "format": "date-time",
            "example": "2022-07-17T00:00:00"
          },
          "DiscontinuedDate" : {
            "type" : "string",
            "format": "date-time",
            "example": "2022-07-17T00:00:00"
          },
          "rowguid" : {
            "type" : "number",
            "example": [
              49
            ]
          },
          "ModifiedDate" : {
            "type" : "string",
            "format": "date-time",
            "example": "2022-07-17T00:00:00"
          }
        }
      },
      "Employees" : {
        "type" : "object",
        "properties" : {
          "EmployeeID" : {
            "type" : "integer"
          },
          "NationalIDNumber" : {
            "type" : "number"
          },
          "ContactID" : {
            "type" : "string"
          },
          "LoginID" : {
            "type" : "string"
          },
          "ManagerID" : {
            "type" : "number"
          },
          "Title" : {
            "type" : "string"
          },
          "BirthDate" : {
            "type" : "string",
            "format": "date-time",
            "example": "2022-07-17T00:00:00"
          },
          "MaritalStatus" : {
            "type" : "string"
          },
          "Gender" : {
            "type" : "string"
          },
          "HireDate" : {
            "type" : "string",
            "format": "date-time",
            "example": "2022-07-17T00:00:00"
          },
          "SalariedFlag" : {
            "type" : "number",
            "example": [
              27
            ]
          },
          "VacationHours" : {
            "type" : "number"
          },
          "SickLeaveHours" : {
            "type" : "number"
          },
          "CurrentFlag" : {
            "type" : "number",
            "example": [
              5
            ]
          },
          "ModifiedDate" : {
            "type" : "string",
            "format": "date-time",
            "example": "2022-07-17T00:00:00"
          }
        }
      },
      "ApiResponse" : {
        "type" : "object",
        "properties" : {
          "code" : {
            "type" : "integer",
            "format" : "int32"
          },
          "type" : {
            "type" : "string"
          },
          "message" : {
            "type" : "string"
          }
        }
      }
    },
    "requestBodies" : {
      "Products" : {
        "content" : {
          "application/json" : {
            "schema" : {
              "$ref" : "#/components/schemas/Products"
            }
          }
        }
      },
      "Employees" : {
        "content" : {
          "application/json" : {
            "schema" : {
              "$ref" : "#/components/schemas/Employees"
            }
          }
        }
      }
    }
  }
}
